{
    "mongo":            "mongodb://testAdmin:w4pp13R@test.wappier.com:27017/test",    
    "redis":            "redis://:w4pp13R@test.wappier.com:6379/1",
    "pagination_limit": 25,
    "api_port":         3001
}